17 24 54 
21 60 63 
49 43 31 
75 74 3 
9 57 71 
64 37 30 
5 50 67 
66 45 33 
35 46 68 
20 27 73 
53 7 12 
4 19 36 
15 48 23 
65 58 10 
8 38 11 
2 39 16 
52 13 18 
28 14 56 
40 41 42 
6 25 34 
44 51 26 
1 47 29 
62 55 22 
69 59 70 
72 32 0 61 
