25 65 64 
63 39 53 
2 13 47 
51 4 77 
3 52 18 
99 70 40 
81 36 94 
95 38 29 
43 49 1 
67 72 84 
73 20 58 
21 15 69 
87 93 78 
14 16 10 
90 44 31 
89 71 9 
23 83 17 
37 98 35 
32 75 12 
96 55 79 30 88 41 7 0 46 97 22 59 61 76 56 8 6 82 42 45 28 33 54 11 26 34 85 19 86 50 60 24 80 68 57 66 48 5 62 92 27 91 74 
