3 74 75 66 25 11 39 16 50 5 67 
19 69 59 70 68 35 36 
1 73 27 60 20 46 47 29 
4 28 44 26 51 33 45 7 6 34 18 53 12 56 14 
0 72 61 21 63 41 42 40 55 22 62 32 
10 52 13 58 65 64 37 
2 43 31 8 38 71 57 9 30 54 24 49 17 23 48 15 
