32 43 35 
9 11 10 
78 87 86 
75 84 76 
8 17 16 
61 71 62 
88 98 89 
5 7 6 
81 83 82 
70 80 79 
28 36 29 
14 22 15 
18 27 19 
26 53 44 
20 23 21 
48 57 49 
63 72 66 
0 2 1 
65 74 73 
90 92 91 
50 52 51 
95 97 96 
4 13 12 
85 94 93 
30 40 31 
55 64 56 
68 77 69 
58 60 59 
33 42 41 
45 54 46 
24 34 25 
38 67 47 
3 39 37 
