48 51 49 
70 72 71 
5 7 6 
43 45 44 
54 57 55 
33 38 37 
12 73 13 
18 30 19 
56 63 62 
17 36 35 
50 65 64 
31 34 32 
20 24 23 
2 4 3 
58 61 60 
41 53 52 
66 69 67 
10 15 14 
26 42 27 
8 11 9 
25 29 28 
46 68 47 
1 75 74 
39 59 40 
0 22 21 
