19 81 24 
12 87 78 
6 73 60 
38 76 42 
17 84 58 
53 90 62 
10 89 16 
7 65 51 
18 91 47 
1 99 29 
30 98 77 
23 40 26 
5 82 39 
20 46 27 
48 97 69 
64 95 85 
35 74 66 
31 96 93 
25 86 54 
21 41 22 
43 59 52 
33 80 49 
68 79 75 
13 67 32 
34 50 36 
