30 98 77 79 75 71 56 
6 74 66 
28 57 35 
1 99 29 34 61 36 50 18 91 47 
17 84 63 58 
2 39 5 82 4 
33 80 37 
11 46 27 
0 49 93 31 96 97 48 69 88 89 16 10 22 41 21 73 60 65 7 51 45 68 14 53 90 62 15 9 20 55 94 25 86 54 8 19 24 81 13 67 32 44 64 85 95 76 42 52 59 43 92 3 70 38 72 83 40 23 26 
12 87 78 
