70 72 71 
43 47 46 45 44 
5 7 6 
0 75 74 1 
2 4 3 
12 73 13 
20 24 23 22 21 
8 11 10 14 15 16 17 36 35 37 38 39 40 59 58 60 61 63 62 56 57 54 55 64 65 50 49 48 51 52 53 41 42 27 26 25 28 29 30 18 19 9 
66 69 68 67 
31 34 33 32 
