8 19 24 9 
64 95 85 
38 90 53 
4 61 52 
60 79 75 
7 51 45 
20 94 55 
13 67 32 
0 49 26 
15 76 62 
33 80 37 
31 96 93 
3 70 42 
30 71 56 
14 72 68 
18 91 47 
6 74 73 
34 50 36 
2 82 39 
25 86 54 
43 92 59 
5 81 17 
1 99 29 
21 57 41 
16 89 88 
28 66 35 
10 65 22 
11 46 27 
58 84 63 
23 83 40 
48 97 69 
12 87 78 
44 98 77 
